<svg width="100" height="100" viewBox="0 0 100 100" fill="none" xmlns="http://www.w3.org/2000/svg">
<g clip-path="url(#clip0_5_7993)">
<path d="M59.7205 86.9278C59.4076 86.7308 59.1005 86.5223 58.7992 86.2963C53.6369 82.4492 55.0217 74.9577 55.0217 74.9577L46.3656 74.8535L45.8152 74.9577C45.8152 74.9577 47.2 82.4492 42.0376 86.2963C41.6668 86.5686 41.2902 86.8178 40.9136 87.0495L50.1316 93.6545L59.7263 86.9221L59.7205 86.9278Z" fill="white" stroke="#283357" stroke-width="0.579385" stroke-linecap="round" stroke-linejoin="round"/>
<path d="M59.9234 87.0495C59.9523 87.0669 59.9813 87.0843 60.0103 87.1017C59.9118 87.0437 59.8133 86.9858 59.7206 86.9221L50.126 93.6545L40.9079 87.0495L44.3611 93.0056V100.161H56.4702V93.0056L59.9234 87.0495Z" fill="#283357" stroke="#283357" stroke-width="0.579385" stroke-linejoin="round"/>
<path d="M40.9023 87.0495C35.9485 90.0681 30.0793 90.0101 26.1337 100.167H44.3612V93.0114L40.9081 87.0553L40.9023 87.0495Z" fill="white" stroke="#283357" stroke-width="0.579385" stroke-linecap="round" stroke-linejoin="round"/>
<path d="M44.9986 82.4608C44.9986 82.4608 44.9407 84.5813 42.0322 86.2963L44.3613 93.0114L39.0715 88.0402C39.0715 88.0402 37.8432 85.856 44.9986 82.4608Z" fill="white" stroke="#283357" stroke-width="0.579385" stroke-linecap="round" stroke-linejoin="round"/>
<path d="M43.0113 94.3497H41.4933C41.3427 94.3497 41.1978 94.483 41.2036 94.6394C41.2094 94.7959 41.3311 94.9291 41.4933 94.9291H43.0113C43.1619 94.9291 43.3068 94.7959 43.301 94.6394C43.2952 94.483 43.1735 94.3497 43.0113 94.3497Z" fill="#283357"/>
<path d="M43.0113 98.1157H41.4933C41.3427 98.1157 41.1978 98.249 41.2036 98.4054C41.2094 98.5618 41.3311 98.6951 41.4933 98.6951H43.0113C43.1619 98.6951 43.3068 98.5618 43.301 98.4054C43.2952 98.249 43.1735 98.1157 43.0113 98.1157Z" fill="#283357"/>
<path d="M74.3151 99.2398C74.2746 99.1413 74.2282 99.0486 74.1877 98.9559C74.1008 98.7589 74.0139 98.5619 73.9269 98.3707C73.8748 98.2548 73.8169 98.1505 73.7647 98.0404C73.6836 97.8782 73.6083 97.7102 73.5272 97.5537C73.4692 97.4437 73.4113 97.3394 73.3534 97.2293C73.2722 97.0844 73.1969 96.9338 73.1158 96.7947C73.0579 96.6905 72.9941 96.5862 72.9362 96.4819C72.8551 96.3486 72.7798 96.2096 72.6987 96.0821C72.6349 95.9836 72.5712 95.8851 72.5075 95.7866C72.4263 95.665 72.351 95.5375 72.2699 95.4158C72.2062 95.3231 72.1424 95.2304 72.0729 95.1377C71.9918 95.0218 71.9107 94.906 71.8296 94.7959C71.7658 94.709 71.6963 94.6221 71.6326 94.5409C71.5515 94.4367 71.4704 94.3266 71.3834 94.2223C71.3197 94.1412 71.2502 94.0659 71.1865 93.9847C71.0995 93.8862 71.0184 93.782 70.9315 93.6892C70.862 93.6139 70.7983 93.5444 70.7287 93.4691C70.6418 93.3764 70.5607 93.2837 70.4738 93.1968C70.4043 93.1272 70.3406 93.0635 70.271 92.994C70.1841 92.9071 70.0972 92.8202 70.0103 92.739C69.9466 92.6753 69.877 92.6174 69.8133 92.5594C69.7206 92.4783 69.6337 92.3914 69.541 92.3161C69.4773 92.2582 69.4135 92.206 69.344 92.1539C69.2513 92.0786 69.1586 91.9974 69.0659 91.9221C69.0022 91.87 68.9384 91.8236 68.8689 91.7715C68.7762 91.6962 68.6777 91.6266 68.585 91.5571C68.5213 91.5108 68.4575 91.4644 68.3938 91.4239C68.2953 91.3543 68.1968 91.2848 68.0983 91.2211C68.0346 91.1805 67.9767 91.14 67.9129 91.0994C67.8144 91.0357 67.7101 90.9661 67.6059 90.9024C67.5479 90.8676 67.49 90.8329 67.432 90.7981C67.3277 90.7344 67.2177 90.6706 67.1134 90.6069C67.0612 90.5779 67.0033 90.5432 66.9511 90.5142C66.8411 90.4505 66.731 90.3867 66.6151 90.3288C66.5688 90.2998 66.5166 90.2767 66.4703 90.2477C66.3544 90.184 66.2327 90.1202 66.1168 90.0623C66.0763 90.0391 66.0357 90.0217 65.9952 89.9986C65.8677 89.9348 65.7402 89.8711 65.6128 89.8074C65.5838 89.79 65.549 89.7784 65.5201 89.761C65.381 89.6915 65.2362 89.6278 65.0971 89.5582C65.0855 89.5582 65.0739 89.5466 65.0681 89.5408C63.9905 89.0368 62.907 88.5907 61.8468 88.0866C61.8294 88.075 61.812 88.0692 61.7888 88.0576C61.6556 87.9939 61.5223 87.9302 61.3891 87.8606C61.3601 87.8433 61.3253 87.8317 61.2963 87.8143C61.1747 87.7505 61.053 87.6868 60.9313 87.6231C60.8908 87.5999 60.8502 87.5825 60.8097 87.5593C60.6938 87.4956 60.5837 87.4377 60.4678 87.374C60.4215 87.3508 60.3751 87.3218 60.3288 87.2928C60.2187 87.2291 60.1144 87.1654 60.0043 87.1016C59.9754 87.0843 59.9464 87.0669 59.9174 87.0495L56.4643 93.0056V100.161H74.6917C74.5701 99.8423 74.4426 99.5295 74.3151 99.234V99.2398Z" fill="white" stroke="#283357" stroke-width="0.579385" stroke-linecap="round" stroke-linejoin="round"/>
<path d="M55.8271 82.4608C55.8271 82.4608 55.885 84.5813 58.7936 86.2963L56.4644 93.0114L61.7542 88.0402C61.7542 88.0402 62.9825 85.856 55.8271 82.4608Z" fill="white" stroke="#283357" stroke-width="0.579385" stroke-linecap="round" stroke-linejoin="round"/>
<path d="M58.6835 94.6394C58.6835 94.877 58.4923 95.0682 58.2548 95.0682C58.0172 95.0682 57.826 94.877 57.826 94.6394C57.826 94.4019 58.0172 94.2107 58.2548 94.2107C58.4923 94.2107 58.6835 94.4019 58.6835 94.6394Z" fill="#283357"/>
<path d="M58.6835 98.4054C58.6835 98.643 58.4923 98.8342 58.2548 98.8342C58.0172 98.8342 57.826 98.643 57.826 98.4054C57.826 98.1679 58.0172 97.9767 58.2548 97.9767C58.4923 97.9767 58.6835 98.1679 58.6835 98.4054Z" fill="#283357"/>
<path d="M71.3312 61.18C71.2037 59.6968 70.6011 58.4511 68.8746 58.8509C68.5501 58.9262 68.1735 59.1406 67.8143 59.4129C68.0345 58.202 68.2083 56.9679 68.3184 55.7164C69.4308 43.4624 66.3948 31.0114 50.6008 31.0114H50.2358C34.4417 31.0114 31.4057 43.4682 32.5182 55.7164C32.634 56.9679 32.8021 58.202 33.0222 59.4129C32.6572 59.1406 32.2864 58.9262 31.9619 58.8509C30.2354 58.4511 29.627 59.6968 29.5054 61.18C29.2794 63.8567 31.0581 66.3597 33.6364 67.6633C34.0709 67.8835 34.9748 68.121 35.9076 68.2253C38.8335 73.9149 43.6134 77.733 50.4212 77.3854C57.2347 77.733 62.0089 73.9149 64.9348 68.2253C65.8676 68.121 66.7772 67.8835 67.2059 67.6633C69.7784 66.3597 71.5629 63.8567 71.337 61.18H71.3312Z" fill="white" stroke="#283357" stroke-width="0.579385" stroke-linecap="round" stroke-linejoin="round"/>
<path d="M50.983 55.8149C50.9308 56.7825 51.2263 57.7153 51.7362 58.4627C51.9969 58.8451 52.3155 59.1348 52.6921 59.4477C53.0514 59.7663 53.4627 60.1487 53.6365 60.7165C53.7177 60.9946 53.7177 61.2901 53.6655 61.5567C53.6192 61.8232 53.5323 62.1013 53.3642 62.3272C53.0456 62.7965 52.5415 63.0862 52.0374 63.2021C51.0351 63.4397 49.998 63.2716 49.1405 62.8139C50.0675 63.0572 51.0583 63.0399 51.91 62.7676C52.3329 62.6227 52.6979 62.3736 52.9007 62.0317C53.0977 61.6957 53.1846 61.2438 53.0745 60.8788C52.8718 60.114 51.8347 59.6389 51.3538 58.7003C50.8497 57.8196 50.7049 56.7478 50.983 55.8149Z" fill="#283357"/>
<path d="M37.24 48.9666C37.5065 48.2771 37.9063 47.7209 38.4162 47.2284C38.9376 46.736 39.5981 46.3709 40.2934 46.1682C40.9944 45.9712 41.6665 45.919 42.3502 45.9596C43.0281 46.0117 43.7233 46.145 44.3607 46.5274C43.7118 46.8692 43.1208 47.1126 42.5182 47.3153C41.9215 47.5181 41.3189 47.6804 40.7801 47.8368C40.2354 47.999 39.714 48.1613 39.152 48.3756C38.5784 48.5842 37.97 48.8275 37.24 48.9666Z" fill="#283357"/>
<path d="M54.72 65.3053C54.4419 65.5892 54.1464 65.8557 53.8393 66.1164C53.5033 66.3308 53.1846 66.5973 52.8138 66.7595C52.0954 67.1477 51.2727 67.3389 50.4499 67.3853C48.7813 67.4316 47.1474 66.5915 46.2146 65.3053C46.8462 65.7862 47.5298 66.1628 48.2367 66.4293C48.9493 66.6842 49.6909 66.8407 50.4383 66.8059C50.6237 66.8175 50.8092 66.7769 50.9946 66.7653L51.2727 66.7364L51.545 66.6726C51.7246 66.6263 51.9158 66.6031 52.0954 66.5394C52.275 66.4698 52.4546 66.4119 52.6342 66.3482C52.9992 66.2323 53.3295 66.0295 53.6887 65.8789C54.0363 65.6993 54.3608 65.4849 54.72 65.3053Z" fill="#283357"/>
<path d="M63.5903 48.9666C62.866 48.8333 62.2519 48.5842 61.6783 48.3756C61.1163 48.1613 60.5948 47.999 60.0502 47.8368C59.5056 47.6861 58.9088 47.5181 58.3121 47.3153C57.7095 47.1068 57.1185 46.8692 56.4696 46.5274C57.1127 46.145 57.808 46.0117 58.4801 45.9596C59.1638 45.919 59.8359 45.9654 60.5369 46.1682C61.2322 46.3709 61.8985 46.736 62.4141 47.2284C62.924 47.7209 63.3238 48.2771 63.5903 48.9666Z" fill="#283357"/>
<path d="M31.4924 61.829C31.9443 61.8811 32.3499 62.1476 32.6917 62.4315C33.0336 62.7212 33.3291 63.0631 33.584 63.4223C33.8389 63.7873 34.0475 64.1987 34.1923 64.61C34.3488 65.0214 34.4647 65.427 34.5747 65.8615C34.2561 65.5486 34.0127 65.172 33.7868 64.807C33.555 64.442 33.3522 64.0886 33.1089 63.7525C32.8771 63.4049 32.6222 63.0747 32.3673 62.7444C32.1008 62.4199 31.8458 62.1013 31.4924 61.829Z" fill="#283357"/>
<path d="M69.3379 61.829C68.9845 62.1013 68.7296 62.4199 68.463 62.7444C68.2081 63.0747 67.9532 63.4049 67.7214 63.7525C67.4781 64.0886 67.2753 64.442 67.0436 64.807C66.8176 65.172 66.5743 65.5428 66.2556 65.8615C66.3657 65.427 66.4816 65.0214 66.638 64.61C66.7886 64.1987 66.9914 63.7931 67.2463 63.4223C67.5071 63.0573 67.7968 62.7212 68.1386 62.4315C68.4804 62.1476 68.8802 61.8811 69.3379 61.829Z" fill="#283357"/>
<path d="M42.5703 57.0722C41.9793 57.6631 41.0176 57.6631 40.4266 57.0722C39.8356 56.4812 39.8356 55.5194 40.4266 54.9285C41.0176 54.3375 41.9793 54.3375 42.5703 54.9285C43.1613 55.5194 43.1613 56.4812 42.5703 57.0722Z" fill="#283357"/>
<path d="M58.2716 57.0722C58.8626 57.6631 59.8244 57.6631 60.4154 57.0722C61.0063 56.4812 61.0063 55.5194 60.4154 54.9285C59.8244 54.3375 58.8626 54.3375 58.2716 54.9285C57.6807 55.5194 57.6807 56.4812 58.2716 57.0722Z" fill="#283357"/>
<path d="M38.9898 62.1302C39.3606 62.1302 39.3606 61.5508 38.9898 61.5508C38.6189 61.5508 38.6189 62.1302 38.9898 62.1302Z" fill="#283357"/>
<path d="M39.0652 63.5091C39.436 63.5091 39.436 62.9297 39.0652 62.9297C38.6944 62.9297 38.6944 63.5091 39.0652 63.5091Z" fill="#283357"/>
<path d="M41.7476 62.3156H41.6723C41.6317 62.3156 41.597 62.3214 41.5622 62.3388C41.5274 62.3504 41.4927 62.3677 41.4695 62.3967C41.4405 62.4257 41.4232 62.4547 41.4116 62.4894C41.3942 62.5242 41.3826 62.5589 41.3884 62.5995L41.4 62.6748C41.4116 62.7212 41.4405 62.7675 41.4753 62.8023L41.5332 62.8486C41.5796 62.8776 41.6259 62.8892 41.6781 62.8892H41.7534C41.794 62.8892 41.8287 62.8834 41.8635 62.866C41.8983 62.8544 41.933 62.837 41.9562 62.8081C41.9852 62.7791 42.0025 62.7502 42.0141 62.7154C42.0315 62.6806 42.0431 62.6459 42.0373 62.6053L42.0257 62.53C42.0141 62.4836 41.9852 62.4373 41.9504 62.4025L41.8925 62.3562C41.8461 62.3272 41.7998 62.3156 41.7476 62.3156Z" fill="#283357"/>
<path d="M40.6005 61.6725C40.9713 61.6725 40.9713 61.0931 40.6005 61.0931C40.2297 61.0931 40.2297 61.6725 40.6005 61.6725Z" fill="#283357"/>
<path d="M37.8426 60.4442C38.2134 60.4442 38.2134 59.8648 37.8426 59.8648C37.4718 59.8648 37.4718 60.4442 37.8426 60.4442Z" fill="#283357"/>
<path d="M36.6143 62.2055C36.9851 62.2055 36.9851 61.6262 36.6143 61.6262C36.2435 61.6262 36.2435 62.2055 36.6143 62.2055Z" fill="#283357"/>
<path d="M59.4246 61.4408C59.7954 61.4408 59.7954 60.8614 59.4246 60.8614C59.0538 60.8614 59.0538 61.4408 59.4246 61.4408Z" fill="#283357"/>
<path d="M61.0354 59.9865C61.4062 59.9865 61.4062 59.4071 61.0354 59.4071C60.6646 59.4071 60.6646 59.9865 61.0354 59.9865Z" fill="#283357"/>
<path d="M61.8001 62.362C62.1709 62.362 62.1709 61.7826 61.8001 61.7826C61.4293 61.7826 61.4293 62.362 61.8001 62.362Z" fill="#283357"/>
<path d="M64.025 61.5971C64.3959 61.5971 64.3959 61.0178 64.025 61.0178C63.6542 61.0178 63.6542 61.5971 64.025 61.5971Z" fill="#283357"/>
<path d="M63.179 60.2936C63.5498 60.2936 63.5498 59.7142 63.179 59.7142C62.8082 59.7142 62.8082 60.2936 63.179 60.2936Z" fill="#283357"/>
<path d="M60.7108 62.7617V62.6864C60.7108 62.6458 60.705 62.6111 60.6876 62.5763C60.676 62.5416 60.6586 62.5068 60.6297 62.4836C60.6007 62.4546 60.5717 62.4373 60.537 62.4257C60.5022 62.4083 60.4674 62.3967 60.4269 62.4025L60.3516 62.4141C60.3052 62.4257 60.2589 62.4546 60.2241 62.4894L60.1777 62.5474C60.1488 62.5937 60.1372 62.6401 60.1372 62.6922V62.7675C60.1372 62.8081 60.143 62.8428 60.1604 62.8776C60.1719 62.9124 60.1893 62.9471 60.2183 62.9703C60.2473 62.9993 60.2762 63.0166 60.311 63.0282C60.3458 63.0456 60.3805 63.0572 60.4211 63.0514L60.4964 63.0398C60.5428 63.0282 60.5891 62.9993 60.6239 62.9645L60.6702 62.9066C60.6992 62.8602 60.7108 62.8139 60.7108 62.7617Z" fill="#283357"/>
<path d="M63.0284 63.3585C63.3992 63.3585 63.3992 62.7791 63.0284 62.7791C62.6576 62.7791 62.6576 63.3585 63.0284 63.3585Z" fill="#283357"/>
<path d="M72.9825 44.065C73.3244 40.803 73.2491 37.5527 72.1888 34.0358C72.2178 34.8296 72.015 35.6291 71.6152 36.3186C71.2618 33.6476 69.9234 31.1157 67.9129 29.3138C67.5653 30.1018 67.2177 30.8955 66.8642 31.6835C64.9523 27.3265 59.8942 25.2987 55.1954 24.5455C50.4966 23.7923 45.5429 23.8386 41.2554 21.776C41.7653 22.8363 42.2809 23.9023 42.7908 24.9626C39.6853 25.1133 36.545 24.3253 33.8798 22.732C34.1985 23.827 34.5114 24.922 34.83 26.0171C33.9436 26.1503 32.5415 25.206 31.487 23.9661L32.1938 28.8155C31.4348 28.4795 30.6758 28.1434 29.9226 27.8074C30.4093 31.2605 30.4035 40.832 30.1312 42.3905C29.4765 46.116 29.3375 50.2702 30.56 53.7812C30.9771 54.9748 31.3537 57.7732 31.9563 58.8509C32.2807 59.4244 34.1058 61.2611 34.5693 60.3746C34.3318 58.6886 34.2506 48.6363 35.0038 45.9885C35.5832 43.9433 36.7188 42.5817 38.1615 40.9421C39.2739 39.679 40.705 38.9142 42.1882 38.19C42.559 39.0706 41.829 39.9919 41.1569 40.5133C43.515 41.1043 47.1709 39.8239 49.39 38.8679C50.8384 38.2479 53.5558 36.4286 54.7203 34.0648C54.5987 35.0092 52.93 37.4657 52.3217 38.1205C53.7064 38.1436 56.389 36.5098 57.2638 35.4611C56.4701 38.132 55.4909 38.5782 55.0332 39.7311C57.5072 39.0417 59.0599 37.5411 60.4504 35.1598C61.4528 37.3383 63.0055 39.3777 63.9905 41.5446C64.7495 43.2075 66.8758 45.8668 67.0497 53.5553C67.1018 55.8438 67.3625 57.5472 67.3509 59.7547C67.7159 58.3873 66.87 62.0722 68.8689 58.8624C69.5932 57.6979 71.3313 53.7638 71.5804 52.4371C72.1193 49.5401 72.6987 46.8054 72.9825 44.0765V44.065Z" fill="#283357"/>
<path d="M34.5343 54.7256H33.6131V55.809H34.5343V54.7256Z" fill="#283357"/>
<path d="M48.2135 52.9585C48.2135 52.9585 50.8092 50.6526 54.5173 52.9585" stroke="#283357" stroke-width="0.579385" stroke-miterlimit="10"/>
<path d="M44.5867 49.9978H57.0319" stroke="#283357" stroke-width="0.579385" stroke-miterlimit="10"/>
<path d="M44.9286 49.8067C42.7559 49.262 40.056 49.5343 37.9876 50.189C35.1254 51.0581 34.1752 54.1578 34.4939 56.8751C34.7546 59.3202 35.8728 62.3677 38.5206 62.7443C43.2889 63.4512 48.6367 59.5345 49.0654 53.8797C49.106 53.3351 48.9032 50.7974 44.9344 49.8009L44.9286 49.8067Z" fill="#283357"/>
<path d="M68.5152 54.7256H67.594V55.809H68.5152V54.7256Z" fill="#283357"/>
<path d="M57.1999 49.8067C59.3726 49.262 62.0726 49.5343 64.141 50.189C66.9973 51.0581 67.9533 54.1578 67.6347 56.8751C67.3681 59.3202 66.2557 62.3677 63.6079 62.7443C58.8396 63.4512 53.4861 59.5345 53.0631 53.8797C53.0226 53.3351 53.2253 50.7974 57.1941 49.8009L57.1999 49.8067Z" fill="#283357"/>
</g>
<defs>
<clipPath id="clip0_5_7993">
<rect width="100" height="100" fill="white"/>
</clipPath>
</defs>
</svg>
