<svg width="100" height="100" viewBox="0 0 100 100" fill="none" xmlns="http://www.w3.org/2000/svg">
<g clip-path="url(#clip0_548_4921)">
<path d="M80.42 67.4764C79.1541 62.0983 77.9199 56.9397 78.2825 51.2889C79.3068 35.4928 61.0237 13.53 42.7533 22.5606C38.8919 24.4699 34.4388 23.4797 30.5964 25.4423C27.7591 26.8891 25.4308 29.2372 23.9677 31.9173C21.3531 36.6965 21.0477 42.2583 21.0795 47.6245C21.105 52.3266 20.7487 57.2836 20.2462 62.0628C19.9853 64.5116 19.839 67.0495 19.3619 69.4687C18.1723 75.5108 17.3898 80.7999 19.9026 86.7294C20.7615 88.7573 22.0147 90.7792 24.0822 91.7991C23.7832 90.4294 23.7068 89.1842 23.6941 87.7908C25.2145 90.7259 28.02 93.0621 31.3216 94.1353C32.6003 94.5504 33.7899 94.5622 35.0558 94.4733C67.4616 98.873 73.715 91.8584 76.6922 88.8521C77.7991 87.7315 79.5867 84.3695 79.6312 82.8515C79.9429 83.7943 80.261 84.7371 80.5727 85.6799C83.2064 81.5233 81.8068 73.3466 80.4264 67.4823L80.42 67.4764Z" fill="#283357"/>
<path d="M80.7382 67.4348C80.0447 64.4938 79.345 61.5409 78.9251 58.5524C78.7152 57.0523 78.5816 55.5462 78.5434 54.0342C78.5116 52.7356 78.6261 51.443 78.6388 50.1444C78.6707 46.1895 77.6083 42.2523 75.9606 38.6234C74.2239 34.8167 71.7938 31.2531 68.7594 28.2291C65.7249 25.205 62.366 22.8807 58.3773 21.4991C54.3886 20.1175 50.3045 19.9515 46.3476 21.0425C45.2662 21.339 44.2165 21.7244 43.1987 22.1869C42.5752 22.4715 41.9709 22.7799 41.3157 23.0052C40.6032 23.2483 39.8652 23.4143 39.1209 23.5389C36.3028 24.0132 33.3574 24.0014 30.7364 25.211C28.319 26.3257 26.2642 28.1401 24.7566 30.2095C23.0962 32.4805 22.1102 35.1428 21.544 37.823C20.9778 40.5031 20.7933 43.4145 20.7742 46.225C20.7488 49.2728 20.717 52.3146 20.5198 55.3624C20.3226 58.4101 19.9854 61.4935 19.6991 64.5531C19.5592 66.071 19.4001 67.5949 19.1266 69.101C18.853 70.6071 18.5604 72.0064 18.3441 73.4651C17.9306 76.2401 17.7525 79.0566 18.1787 81.8434C18.6049 84.6303 19.4701 87.2926 21.105 89.528C21.8112 90.5005 22.7145 91.3365 23.8278 91.8939C23.9232 91.9413 24.4385 91.9235 24.4067 91.7516C24.1204 90.4293 24.0313 89.0892 24.0186 87.7433L23.3888 87.8322C24.4067 89.783 25.9525 91.461 27.861 92.6944C28.8152 93.317 29.8585 93.821 30.9527 94.1886C32.2632 94.6274 33.6182 94.6807 34.9986 94.5918L35.0432 94.3487C34.8587 94.3783 34.5851 94.5444 34.9223 94.5918C40.8449 95.3923 46.8248 95.9674 52.8173 96.003C56.7551 96.0267 60.7311 95.8192 64.5989 95.0839C67.0799 94.6096 69.5291 93.9099 71.7747 92.8011C73.2061 92.0896 74.5229 91.2001 75.6807 90.1506C76.0879 89.7771 76.4759 89.3916 76.864 89.0003C77.4111 88.4429 77.8437 87.8144 78.2381 87.1562C78.8361 86.1601 79.3641 85.1046 79.7139 84.0077C79.8348 83.6163 79.9366 83.2131 79.9557 82.8099L79.3259 82.8989C79.6376 83.8417 79.9557 84.7844 80.2674 85.7272C80.3246 85.9051 80.8145 85.7925 80.8908 85.6739C82.0614 83.7942 82.3349 81.5054 82.3731 79.3708C82.424 76.7796 82.0868 74.1825 81.6288 71.6329C81.3743 70.2276 81.0753 68.8341 80.7509 67.4407C80.7127 67.2688 80.0829 67.3696 80.1211 67.5297C80.7 70.0023 81.2025 72.4986 81.4952 75.0186C81.7878 77.5386 81.915 79.9578 81.4761 82.3771C81.2662 83.5333 80.9036 84.6777 80.2738 85.6917L80.8972 85.6383C80.5855 84.6955 80.2674 83.7527 79.9557 82.8099C79.8984 82.6439 79.3323 82.7269 79.3259 82.8989C79.2877 83.8772 78.8233 84.8615 78.4035 85.7391C77.9391 86.6997 77.4047 87.6602 76.7177 88.5022C76.336 88.9707 75.8716 89.4035 75.4263 89.8245C74.383 90.8147 73.2124 91.6745 71.9274 92.3742C69.9299 93.4593 67.7224 94.1708 65.4768 94.663C61.9016 95.4516 58.2056 95.7065 54.5413 95.754C48.9368 95.8251 43.3323 95.3626 37.785 94.6807C36.9262 94.574 36.0674 94.4614 35.2086 94.3487L35.0877 94.5918C35.3485 94.5503 35.5139 94.325 35.1322 94.3487C33.7518 94.4436 32.4413 94.3546 31.1435 93.8803C30.113 93.5067 29.1269 93.0027 28.23 92.3979C26.4487 91.1942 24.9856 89.5932 24.0186 87.7433C23.9423 87.595 23.3888 87.6484 23.3888 87.8322C23.4015 89.1782 23.497 90.5182 23.7769 91.8405L24.3558 91.6982C21.9002 90.459 20.6279 87.9093 19.7818 85.5434C18.8276 82.8929 18.4777 80.112 18.5859 77.3252C18.694 74.5383 19.292 71.6803 19.7882 68.8697C20.2844 66.0592 20.488 62.964 20.7679 60.017C21.0478 57.0701 21.2768 53.8919 21.3595 50.8204C21.4422 47.9624 21.334 45.0984 21.5503 42.2464C21.9511 36.9098 23.4397 31.348 27.7783 27.5709C28.7707 26.7111 29.8776 25.9403 31.0927 25.3711C32.4477 24.7307 33.9363 24.4461 35.4312 24.2504C36.8371 24.0666 38.2558 23.9539 39.6553 23.6871C41.0548 23.4203 42.219 22.9756 43.4468 22.4004C47.2446 20.6275 51.5387 20.1235 55.6737 21.0603C59.8087 21.9972 63.3775 24.1081 66.4183 26.7348C69.6436 29.5158 72.2837 32.8896 74.2621 36.5363C76.2405 40.1829 77.5128 43.877 77.9136 47.8023C78.1426 50.0555 77.8691 52.2909 77.9454 54.55C78.0472 57.4911 78.5371 60.4024 79.1541 63.2842C79.4595 64.7013 79.7903 66.1125 80.1274 67.5297C80.1656 67.7016 80.7954 67.6008 80.7572 67.4407L80.7382 67.4348Z" fill="#283357"/>
<path d="M68.2825 37.4849C68.5242 37.2714 68.7596 37.058 68.9632 36.8682C69.9237 35.9788 70.6044 34.787 71.2597 36.2279C71.9849 37.7992 72.6783 41.8609 71.5714 41.4932C70.7444 41.4814 69.5802 40.9181 68.6005 40.3192" fill="white"/>
<path d="M68.2825 37.4849C68.5242 37.2714 68.7596 37.058 68.9632 36.8682C69.9237 35.9788 70.6044 34.787 71.2597 36.2279C71.9849 37.7992 72.6783 41.8609 71.5714 41.4932C70.7444 41.4814 69.5802 40.9181 68.6005 40.3192" stroke="#283357" stroke-width="1.07263" stroke-linecap="round" stroke-linejoin="round"/>
<path d="M66.2848 38.0719C65.5405 37.4731 64.4908 37.3663 63.174 37.0046C62.0734 37.0343 63.4984 42.5546 64.3191 42.6673C64.9298 42.7088 66.5074 40.7165 67.0355 40.4319" fill="white"/>
<path d="M66.2848 38.0719C65.5405 37.4731 64.4908 37.3663 63.174 37.0046C62.0734 37.0343 63.4984 42.5546 64.3191 42.6673C64.9298 42.7088 66.5074 40.7165 67.0355 40.4319" stroke="#283357" stroke-width="1.07263" stroke-linecap="round" stroke-linejoin="round"/>
<path d="M68.1934 37.3248C67.9135 37.0224 67.4427 36.9275 66.9592 37.0698C65.7378 37.4196 66.4567 38.4751 66.6539 39.3942C66.8256 40.0345 67.3155 41.7719 68.4097 40.7283C68.9567 40.2065 68.3778 38.06 68.2633 37.4612L68.1997 37.3248H68.1934Z" fill="white" stroke="#283357" stroke-width="1.07263" stroke-linecap="round" stroke-linejoin="round"/>
<path d="M47.8998 88.3361C47.9443 88.3361 47.9889 88.3302 48.027 88.3243C48.0079 88.2828 47.9825 88.2472 47.957 88.2057C47.938 88.2531 47.9125 88.2887 47.8934 88.3361H47.8998Z" stroke="#2500FF" stroke-width="1.07263" stroke-linecap="round" stroke-linejoin="round"/>
<path d="M46.7165 88.3303C47.0982 88.3481 47.4926 88.3481 47.9061 88.3303C47.9252 88.2829 47.9507 88.2473 47.9697 88.1999C47.9888 88.2414 48.0143 88.2769 48.0397 88.3184C50.8515 88.1999 54.1913 87.3519 56.7805 85.7747C52.0729 81.7071 53.4343 74.7992 53.4343 74.7992L43.9302 74.6925L43.3258 74.7992C43.3258 74.7992 44.6236 81.3869 40.3041 85.4842C41.8627 87.2808 43.9492 88.1999 46.7165 88.3244V88.3303Z" fill="white" stroke="#283357" stroke-width="1.07263" stroke-linecap="round" stroke-linejoin="round"/>
<path d="M53.1036 96.507C56.9841 97.7641 61.908 92.0658 63.88 89.4746C61.7108 88.5615 59.5606 87.7847 57.5757 86.4091C57.2895 86.2075 57.0223 85.994 56.7678 85.7806C54.1787 87.3637 50.8389 88.2057 48.0271 88.3243C49.1213 90.3285 50.8707 95.7836 53.1036 96.507Z" fill="white" stroke="#283357" stroke-width="1.07263" stroke-linecap="round" stroke-linejoin="round"/>
<path d="M41.7292 96.845C45.1708 96.5841 46.7166 91.1586 47.8999 88.3362C47.4927 88.3481 47.0919 88.3481 46.7102 88.3362C43.943 88.2117 41.85 87.2926 40.2978 85.496C39.9543 85.8221 39.5853 86.1304 39.1718 86.415C37.1043 87.85 34.8396 88.6445 32.5749 89.611C32.9184 92.4275 38.3575 97.1059 41.7292 96.8509V96.845Z" fill="white" stroke="#283357" stroke-width="1.07263" stroke-linecap="round" stroke-linejoin="round"/>
<path d="M63.8801 89.4806C61.908 92.0659 56.9842 97.7641 53.1036 96.513C50.8771 95.7896 49.1213 90.3345 48.0271 88.3303C47.9826 88.3303 47.938 88.3362 47.8999 88.3422C46.7103 91.1646 45.1644 96.5901 41.7292 96.851C38.3575 97.106 32.9184 92.4276 32.5749 89.6111C28.6371 91.2891 24.6866 93.5068 21.7221 100.616H75.0382C71.9974 93.3348 67.926 91.1824 63.8864 89.4866L63.8801 89.4806Z" fill="white" stroke="#283357" stroke-width="1.07263" stroke-linecap="round" stroke-linejoin="round"/>
<path d="M66.9147 59.6969C67.4618 56.3111 66.0559 47.9743 65.2989 46.3852C65.2989 46.3852 56.6917 44.5945 54.1789 43.5509C51.0618 42.2583 48.7652 40.2956 46.685 37.8764C45.8199 36.8684 43.9368 33.9985 42.5246 31.0278C42.1429 31.9706 37.6198 44.1853 29.5152 46.3081C28.9872 46.4445 29.1272 47.3458 29.0699 48.1581C28.949 50.0377 29.2798 58.9023 30.285 59.602C29.5852 59.5071 28.9236 59.0209 28.3447 58.3983C28.2683 58.3687 28.1856 58.3449 28.1157 58.3272C26.2199 57.918 25.552 59.1929 25.4184 60.7108C25.1703 63.4502 27.1233 66.0118 29.9542 67.3459C30.4313 67.5712 31.4237 67.8143 32.4479 67.921C35.6605 73.7438 40.9087 77.6513 48.3836 77.2956C55.8647 77.6513 61.1066 73.7438 64.3192 67.921C65.3434 67.8143 66.3422 67.5712 66.813 67.3459C69.6375 66.0118 71.5968 63.4502 71.3487 60.7108C71.2088 59.1929 70.5472 57.918 68.6514 58.3272C68.626 58.3272 68.6005 58.3449 68.5751 58.3509C68.0598 59.0565 67.5 59.5901 66.9275 59.6969H66.9147Z" fill="white" stroke="#283357" stroke-width="1.07263" stroke-miterlimit="10"/>
<path d="M47.2513 58.1492C47.8939 58.3152 48.53 58.25 49.198 58.2915C49.5351 58.3033 49.8723 58.3448 50.2285 58.4397C50.5657 58.5524 50.9601 58.6947 51.1764 59.1513C51.3227 59.6138 51.1064 59.9814 50.922 60.2601C50.7057 60.5387 50.4639 60.7759 50.1904 60.9716C49.9168 61.1673 49.6178 61.3333 49.2998 61.4578C48.9817 61.5764 48.6318 61.6594 48.2946 61.6061C48.9372 61.44 49.4143 61.025 49.8596 60.6277C50.0695 60.4142 50.2731 60.1948 50.413 59.9636C50.5657 59.7383 50.642 59.4774 50.5784 59.3469C50.553 59.2283 50.2985 59.0504 50.0377 58.9674C49.7705 58.8666 49.4588 58.8133 49.1471 58.748C48.5237 58.6295 47.8048 58.5464 47.2641 58.1492H47.2513Z" fill="#283357"/>
<path d="M33.9111 48.2114C34.3691 47.6955 34.8844 47.233 35.4696 46.8298C36.0549 46.4207 36.7356 46.1183 37.4417 45.9226C38.1542 45.7388 38.8667 45.6439 39.5856 45.6083C40.2981 45.5728 41.0296 45.5787 41.7358 45.7269C41.0296 45.8277 40.3362 45.9522 39.6492 46.0708C38.9621 46.2013 38.2751 46.3199 37.6262 46.4977C36.971 46.6697 36.3475 46.9128 35.7432 47.2271C35.1388 47.5354 34.5472 47.8971 33.9174 48.2232L33.9111 48.2114Z" fill="#283357"/>
<path d="M43.7649 64.9148C44.4519 65.4129 45.2026 65.7924 45.9851 66.0651C46.7675 66.326 47.5818 66.4861 48.4025 66.4505C48.606 66.4624 48.8096 66.4209 49.0132 66.409L49.3185 66.3794L49.6175 66.3142C49.8147 66.2667 50.0247 66.243 50.2219 66.1778C50.4191 66.1066 50.6099 66.0473 50.8135 65.9821C51.2143 65.8635 51.5769 65.656 51.9713 65.5018C52.353 65.318 52.7092 65.0986 53.1036 64.9148C52.7983 65.2053 52.4738 65.4781 52.1367 65.7449C51.7677 65.9643 51.4178 66.2371 51.0107 66.4031C50.2219 66.8004 49.3185 66.996 48.4152 67.0435C46.5831 67.0909 44.7891 66.2311 43.7649 64.9148Z" fill="#283357"/>
<path d="M39.7637 56.4949C39.1148 57.0997 38.0588 57.0997 37.4099 56.4949C36.7611 55.8901 36.7611 54.9058 37.4099 54.301C38.0588 53.6961 39.1148 53.6961 39.7637 54.301C40.4126 54.9058 40.4126 55.8901 39.7637 56.4949Z" fill="#283357"/>
<path d="M40.5779 61.535C40.5779 62.792 38.8667 63.8119 36.761 63.8119C34.6553 63.8119 32.9441 62.792 32.9441 61.535C32.9441 60.2779 34.6553 59.2581 36.761 59.2581C38.8667 59.2581 40.5779 60.2779 40.5779 61.535Z" fill="#FFEEF7"/>
<path d="M62.8433 48.2114C62.2135 47.8853 61.6219 47.5236 61.0175 47.2152C60.4132 46.9069 59.7897 46.6638 59.1345 46.4859C58.4856 46.308 57.7922 46.1894 57.1115 46.059C56.4245 45.9404 55.7311 45.8218 55.0249 45.7151C55.7311 45.5728 56.4563 45.5609 57.1751 45.5965C57.894 45.6321 58.6065 45.7329 59.319 45.9108C60.0251 46.1064 60.7058 46.4088 61.2911 46.818C61.8763 47.2212 62.3916 47.6896 62.8496 48.1995L62.8433 48.2114Z" fill="#283357"/>
<path d="M56.1763 61.535C56.1763 62.792 57.8876 63.8119 59.9933 63.8119C62.0989 63.8119 63.8102 62.792 63.8102 61.535C63.8102 60.2779 62.0989 59.2581 59.9933 59.2581C57.8876 59.2581 56.1763 60.2779 56.1763 61.535Z" fill="#FFEEF7"/>
<path d="M27.6004 61.369C28.0966 61.4223 28.5419 61.6951 28.9109 61.9856C29.2862 62.2821 29.6106 62.626 29.8905 62.9996C30.1705 63.3731 30.3995 63.7941 30.5585 64.2092C30.7303 64.6302 30.8575 65.0452 30.9784 65.49C30.6285 65.1698 30.3613 64.7843 30.1132 64.4108C29.8587 64.0372 29.6361 63.6755 29.3689 63.3316C29.1144 62.9759 28.8345 62.6379 28.5546 62.2999C28.262 61.9678 27.9821 61.6417 27.594 61.363L27.6004 61.369Z" fill="#283357"/>
<path d="M57.0036 56.4949C57.6525 57.0997 58.7085 57.0997 59.3574 56.4949C60.0063 55.8901 60.0063 54.9058 59.3574 54.301C58.7085 53.6961 57.6525 53.6961 57.0036 54.301C56.3547 54.9058 56.3547 55.8901 57.0036 56.4949Z" fill="#283357"/>
<path d="M69.154 61.3689C68.766 61.6476 68.4861 61.9737 68.1934 62.3058C67.9135 62.6437 67.6336 62.9817 67.3792 63.3375C67.112 63.6814 66.8893 64.0431 66.6349 64.4166C66.3868 64.7902 66.1196 65.1697 65.7697 65.4958C65.8906 65.0511 66.0178 64.636 66.1895 64.215C66.3549 63.8 66.5776 63.379 66.8575 63.0054C67.1438 62.6319 67.4619 62.288 67.8372 61.9915C68.2125 61.7009 68.6515 61.4282 69.1477 61.3748L69.154 61.3689Z" fill="#283357"/>
</g>
<defs>
<clipPath id="clip0_548_4921">
<rect width="100" height="100" fill="white"/>
</clipPath>
</defs>
</svg>
