<svg width="32" height="32" viewBox="0 0 32 32" fill="none" xmlns="http://www.w3.org/2000/svg">
<g clip-path="url(#clip0_302_940)">
<path d="M32 13.3333L29.0667 0H2.93333L0.032 13.044L0 14.6667C0.0048356 15.9537 0.4789 17.1948 1.33333 18.1573V28C1.33333 29.0609 1.75476 30.0783 2.50491 30.8284C3.25505 31.5786 4.27247 32 5.33333 32H26.6667C27.7275 32 28.7449 31.5786 29.4951 30.8284C30.2452 30.0783 30.6667 29.0609 30.6667 28V18.1573C31.5211 17.1948 31.9952 15.9537 32 14.6667V13.3333ZM2.66667 13.4787L5.06667 2.66667H9.33333V8H12V2.66667H20V8H22.6667V2.66667H26.9333L29.3333 13.4787V14.6667C29.3333 15.3739 29.0524 16.0522 28.5523 16.5523C28.0522 17.0524 27.3739 17.3333 26.6667 17.3333H25.3333C24.6261 17.3333 23.9478 17.0524 23.4477 16.5523C22.9476 16.0522 22.6667 15.3739 22.6667 14.6667H20C20 15.3739 19.719 16.0522 19.219 16.5523C18.7189 17.0524 18.0406 17.3333 17.3333 17.3333H14.6667C13.9594 17.3333 13.2811 17.0524 12.781 16.5523C12.281 16.0522 12 15.3739 12 14.6667H9.33333C9.33333 15.3739 9.05238 16.0522 8.55229 16.5523C8.05219 17.0524 7.37391 17.3333 6.66667 17.3333H5.33333C4.62609 17.3333 3.94781 17.0524 3.44772 16.5523C2.94762 16.0522 2.66667 15.3739 2.66667 14.6667V13.4787ZM26.6667 29.3333H5.33333C4.97971 29.3333 4.64057 29.1929 4.39052 28.9428C4.14048 28.6928 4 28.3536 4 28V19.8107C4.43448 19.9307 4.88261 19.9944 5.33333 20H6.66667C7.42652 19.9975 8.17697 19.8317 8.86712 19.5138C9.55727 19.1959 10.171 18.7333 10.6667 18.1573C11.1623 18.7333 11.7761 19.1959 12.4662 19.5138C13.1564 19.8317 13.9068 19.9975 14.6667 20H17.3333C18.0904 20.0004 18.8389 19.8392 19.5287 19.5272C20.2185 19.2152 20.8337 18.7595 21.3333 18.1907C21.8329 18.7595 22.4482 19.2152 23.138 19.5272C23.8278 19.8392 24.5762 20.0004 25.3333 20H26.6667C27.1174 19.9944 27.5655 19.9307 28 19.8107V28C28 28.3536 27.8595 28.6928 27.6095 28.9428C27.3594 29.1929 27.0203 29.3333 26.6667 29.3333Z" fill="white"/>
</g>
<defs>
<clipPath id="clip0_302_940">
<rect width="32" height="32" fill="white"/>
</clipPath>
</defs>
</svg>
